{
  "development": {
    "username": "postgres",
    "password": "123",
    "database": "db_chal5_development",
    "host": "127.0.0.1",
    "dialect": "postgres",
    "port":"3011",
    "logging": false
  },
  "test": {
    "username": "postgres",
    "password": "123",
    "database": "db_chal5_test",
    "host": "127.0.0.1",
    "dialect": "postgres",
    "port":"3011"
  },
  "production": {
    "username": "postgres",
    "password": "123",
    "database": "db_chal5_production",
    "host": "127.0.0.1",
    "dialect": "postgres",
    "port":"3011"
  }
}